{
  "development": {
    "username": "postgres",
    "password": "1234",
    "database": "movies_database",
    "host": "dbpgsql",
    "dialect": "postgresql"
  },
  "test": {
    "username": "postgres",
    "password": "1234",
    "database": "movies_test",
    "host": "dbpgsql",
    "dialect": "postgresql"
  },
  "production": {
    "username": "root",
    "password": null,
    "database": "database_production",
    "host": "dbpgsql",
    "dialect": "mysql"
  }
}
